<svg xmlns="http://www.w3.org/2000/svg" viewBox="0 0 21.626 13.784">
  <defs>
    <style>
      .cls-1 {
        fill: #141313;
      }
    </style>
  </defs>
  <g id="view" transform="translate(0 -92.835)">
    <g id="Group_232" data-name="Group 232" transform="translate(0 92.835)">
      <g id="Group_231" data-name="Group 231" transform="translate(0 0)">
        <path id="Path_32" data-name="Path 32" class="cls-1" d="M21.489,99.306c-.193-.264-4.8-6.471-10.676-6.471S.33,99.042.137,99.306a.714.714,0,0,0,0,.842c.193.264,4.8,6.471,10.676,6.471s10.483-6.207,10.676-6.471A.713.713,0,0,0,21.489,99.306Zm-10.676,5.887c-4.331,0-8.082-4.12-9.192-5.466,1.109-1.348,4.852-5.465,9.192-5.465S18.894,98.38,20,99.727C18.9,101.075,15.153,105.193,10.813,105.193Z" transform="translate(0 -92.835)"/>
      </g>
    </g>
    <g id="Group_234" data-name="Group 234" transform="translate(6.535 95.449)">
      <g id="Group_233" data-name="Group 233" transform="translate(0 0)">
        <path id="Path_33" data-name="Path 33" class="cls-1" d="M159,154.725A4.278,4.278,0,1,0,163.277,159,4.283,4.283,0,0,0,159,154.725Zm0,7.13A2.852,2.852,0,1,1,161.851,159,2.855,2.855,0,0,1,159,161.855Z" transform="translate(-154.722 -154.725)"/>
      </g>
    </g>
  </g>
</svg>
